sim.vcd
$date
	Fri Feb 27 09:54:20 2026
$end
$version
	Icarus Verilog
$end
$timescale
	1ps
$end
$scope module dcu_top $end
$scope module sys_array_inst $end
$var wire 1 ! clk $end
$var wire 64 " col_inputs_flat [63:0] $end
$var wire 1 # load_weights $end
$var wire 64 $ row_inputs_flat [63:0] $end
$var wire 1 % rst_n $end
$var wire 64 & col_outputs_flat [63:0] $end
$var parameter 32 ' ARRAY_SIZE $end
$var parameter 32 ( WIDTH $end
$scope begin edges[0] $end
$var parameter 2 ) edge_idx $end
$upscope $end
$scope begin edges[1] $end
$var parameter 2 * edge_idx $end
$upscope $end
$scope begin edges[2] $end
$var parameter 3 + edge_idx $end
$upscope $end
$scope begin edges[3] $end
$var parameter 3 , edge_idx $end
$upscope $end
$scope begin map_outs[0] $end
$var parameter 2 - c $end
$upscope $end
$scope begin map_outs[1] $end
$var parameter 2 . c $end
$upscope $end
$scope begin map_outs[2] $end
$var parameter 3 / c $end
$upscope $end
$scope begin map_outs[3] $end
$var parameter 3 0 c $end
$upscope $end
$scope begin rows[0] $end
$var parameter 2 1 r $end
$scope begin cols[0] $end
$var parameter 2 2 c $end
$scope module pe_inst $end
$var wire 1 ! clk $end
$var wire 16 3 in_a [15:0] $end
$var wire 16 4 in_b [15:0] $end
$var wire 1 # load_weight $end
$var wire 1 % rst_n $end
$var wire 16 5 weight_in [15:0] $end
$var parameter 32 6 WIDTH $end
$var reg 16 7 out_a [15:0] $end
$var reg 16 8 out_b [15:0] $end
$var reg 16 9 stored_weight [15:0] $end
$upscope $end
$upscope $end
$scope begin cols[1] $end
$var parameter 2 : c $end
$scope module pe_inst $end
$var wire 1 ! clk $end
$var wire 16 ; in_a [15:0] $end
$var wire 16 < in_b [15:0] $end
$var wire 1 # load_weight $end
$var wire 1 % rst_n $end
$var wire 16 = weight_in [15:0] $end
$var parameter 32 > WIDTH $end
$var reg 16 ? out_a [15:0] $end
$var reg 16 @ out_b [15:0] $end
$var reg 16 A stored_weight [15:0] $end
$upscope $end
$upscope $end
$scope begin cols[2] $end
$var parameter 3 B c $end
$scope module pe_inst $end
$var wire 1 ! clk $end
$var wire 16 C in_a [15:0] $end
$var wire 16 D in_b [15:0] $end
$var wire 1 # load_weight $end
$var wire 1 % rst_n $end
$var wire 16 E weight_in [15:0] $end
$var parameter 32 F WIDTH $end
$var reg 16 G out_a [15:0] $end
$var reg 16 H out_b [15:0] $end
$var reg 16 I stored_weight [15:0] $end
$upscope $end
$upscope $end
$scope begin cols[3] $end
$var parameter 3 J c $end
$scope module pe_inst $end
$var wire 1 ! clk $end
$var wire 16 K in_a [15:0] $end
$var wire 16 L in_b [15:0] $end
$var wire 1 # load_weight $end
$var wire 1 % rst_n $end
$var wire 16 M weight_in [15:0] $end
$var parameter 32 N WIDTH $end
$var reg 16 O out_a [15:0] $end
$var reg 16 P out_b [15:0] $end
$var reg 16 Q stored_weight [15:0] $end
$upscope $end
$upscope $end
$upscope $end
$scope begin rows[1] $end
$var parameter 2 R r $end
$scope begin cols[0] $end
$var parameter 2 S c $end
$scope module pe_inst $end
$var wire 1 ! clk $end
$var wire 16 T in_a [15:0] $end
$var wire 16 U in_b [15:0] $end
$var wire 1 # load_weight $end
$var wire 1 % rst_n $end
$var wire 16 V weight_in [15:0] $end
$var parameter 32 W WIDTH $end
$var reg 16 X out_a [15:0] $end
$var reg 16 Y out_b [15:0] $end
$var reg 16 Z stored_weight [15:0] $end
$upscope $end
$upscope $end
$scope begin cols[1] $end
$var parameter 2 [ c $end
$scope module pe_inst $end
$var wire 1 ! clk $end
$var wire 16 \ in_a [15:0] $end
$var wire 16 ] in_b [15:0] $end
$var wire 1 # load_weight $end
$var wire 1 % rst_n $end
$var wire 16 ^ weight_in [15:0] $end
$var parameter 32 _ WIDTH $end
$var reg 16 ` out_a [15:0] $end
$var reg 16 a out_b [15:0] $end
$var reg 16 b stored_weight [15:0] $end
$upscope $end
$upscope $end
$scope begin cols[2] $end
$var parameter 3 c c $end
$scope module pe_inst $end
$var wire 1 ! clk $end
$var wire 16 d in_a [15:0] $end
$var wire 16 e in_b [15:0] $end
$var wire 1 # load_weight $end
$var wire 1 % rst_n $end
$var wire 16 f weight_in [15:0] $end
$var parameter 32 g WIDTH $end
$var reg 16 h out_a [15:0] $end
$var reg 16 i out_b [15:0] $end
$var reg 16 j stored_weight [15:0] $end
$upscope $end
$upscope $end
$scope begin cols[3] $end
$var parameter 3 k c $end
$scope module pe_inst $end
$var wire 1 ! clk $end
$var wire 16 l in_a [15:0] $end
$var wire 16 m in_b [15:0] $end
$var wire 1 # load_weight $end
$var wire 1 % rst_n $end
$var wire 16 n weight_in [15:0] $end
$var parameter 32 o WIDTH $end
$var reg 16 p out_a [15:0] $end
$var reg 16 q out_b [15:0] $end
$var reg 16 r stored_weight [15:0] $end
$upscope $end
$upscope $end
$upscope $end
$scope begin rows[2] $end
$var parameter 3 s r $end
$scope begin cols[0] $end
$var parameter 2 t c $end
$scope module pe_inst $end
$var wire 1 ! clk $end
$var wire 16 u in_a [15:0] $end
$var wire 16 v in_b [15:0] $end
$var wire 1 # load_weight $end
$var wire 1 % rst_n $end
$var wire 16 w weight_in [15:0] $end
$var parameter 32 x WIDTH $end
$var reg 16 y out_a [15:0] $end
$var reg 16 z out_b [15:0] $end
$var reg 16 { stored_weight [15:0] $end
$upscope $end
$upscope $end
$scope begin cols[1] $end
$var parameter 2 | c $end
$scope module pe_inst $end
$var wire 1 ! clk $end
$var wire 16 } in_a [15:0] $end
$var wire 16 ~ in_b [15:0] $end
$var wire 1 # load_weight $end
$var wire 1 % rst_n $end
$var wire 16 !" weight_in [15:0] $end
$var parameter 32 "" WIDTH $end
$var reg 16 #" out_a [15:0] $end
$var reg 16 $" out_b [15:0] $end
$var reg 16 %" stored_weight [15:0] $end
$upscope $end
$upscope $end
$scope begin cols[2] $end
$var parameter 3 &" c $end
$scope module pe_inst $end
$var wire 1 ! clk $end
$var wire 16 '" in_a [15:0] $end
$var wire 16 (" in_b [15:0] $end
$var wire 1 # load_weight $end
$var wire 1 % rst_n $end
$var wire 16 )" weight_in [15:0] $end
$var parameter 32 *" WIDTH $end
$var reg 16 +" out_a [15:0] $end
$var reg 16 ," out_b [15:0] $end
$var reg 16 -" stored_weight [15:0] $end
$upscope $end
$upscope $end
$scope begin cols[3] $end
$var parameter 3 ." c $end
$scope module pe_inst $end
$var wire 1 ! clk $end
$var wire 16 /" in_a [15:0] $end
$var wire 16 0" in_b [15:0] $end
$var wire 1 # load_weight $end
$var wire 1 % rst_n $end
$var wire 16 1" weight_in [15:0] $end
$var parameter 32 2" WIDTH $end
$var reg 16 3" out_a [15:0] $end
$var reg 16 4" out_b [15:0] $end
$var reg 16 5" stored_weight [15:0] $end
$upscope $end
$upscope $end
$upscope $end
$scope begin rows[3] $end
$var parameter 3 6" r $end
$scope begin cols[0] $end
$var parameter 2 7" c $end
$scope module pe_inst $end
$var wire 1 ! clk $end
$var wire 16 8" in_a [15:0] $end
$var wire 16 9" in_b [15:0] $end
$var wire 1 # load_weight $end
$var wire 1 % rst_n $end
$var wire 16 :" weight_in [15:0] $end
$var parameter 32 ;" WIDTH $end
$var reg 16 <" out_a [15:0] $end
$var reg 16 =" out_b [15:0] $end
$var reg 16 >" stored_weight [15:0] $end
$upscope $end
$upscope $end
$scope begin cols[1] $end
$var parameter 2 ?" c $end
$scope module pe_inst $end
$var wire 1 ! clk $end
$var wire 16 @" in_a [15:0] $end
$var wire 16 A" in_b [15:0] $end
$var wire 1 # load_weight $end
$var wire 1 % rst_n $end
$var wire 16 B" weight_in [15:0] $end
$var parameter 32 C" WIDTH $end
$var reg 16 D" out_a [15:0] $end
$var reg 16 E" out_b [15:0] $end
$var reg 16 F" stored_weight [15:0] $end
$upscope $end
$upscope $end
$scope begin cols[2] $end
$var parameter 3 G" c $end
$scope module pe_inst $end
$var wire 1 ! clk $end
$var wire 16 H" in_a [15:0] $end
$var wire 16 I" in_b [15:0] $end
$var wire 1 # load_weight $end
$var wire 1 % rst_n $end
$var wire 16 J" weight_in [15:0] $end
$var parameter 32 K" WIDTH $end
$var reg 16 L" out_a [15:0] $end
$var reg 16 M" out_b [15:0] $end
$var reg 16 N" stored_weight [15:0] $end
$upscope $end
$upscope $end
$scope begin cols[3] $end
$var parameter 3 O" c $end
$scope module pe_inst $end
$var wire 1 ! clk $end
$var wire 16 P" in_a [15:0] $end
$var wire 16 Q" in_b [15:0] $end
$var wire 1 # load_weight $end
$var wire 1 % rst_n $end
$var wire 16 R" weight_in [15:0] $end
$var parameter 32 S" WIDTH $end
$var reg 16 T" out_a [15:0] $end
$var reg 16 U" out_b [15:0] $end
$var reg 16 V" stored_weight [15:0] $end
$upscope $end
$upscope $end
$upscope $end
$scope begin unpack[0] $end
$var parameter 2 W" i $end
$upscope $end
$scope begin unpack[1] $end
$var parameter 2 X" i $end
$upscope $end
$scope begin unpack[2] $end
$var parameter 3 Y" i $end
$upscope $end
$scope begin unpack[3] $end
$var parameter 3 Z" i $end
$upscope $end
$upscope $end
$upscope $end
$scope module dcu_top $end
$scope module relu_inst $end
$var wire 1 ! clk $end
$var wire 1 % rst_n $end
$var wire 64 [" out_flat [63:0] $end
$var wire 64 \" in_flat [63:0] $end
$var parameter 32 ]" DATA_WIDTH $end
$var parameter 32 ^" NUM_ELEMENTS $end
$var integer 32 _" j [31:0] $end
$scope begin unpack_pack[0] $end
$var parameter 2 `" i $end
$upscope $end
$scope begin unpack_pack[1] $end
$var parameter 2 a" i $end
$upscope $end
$scope begin unpack_pack[2] $end
$var parameter 3 b" i $end
$upscope $end
$scope begin unpack_pack[3] $end
$var parameter 3 c" i $end
$upscope $end
$upscope $end
$upscope $end
$scope module dcu_top $end
$var wire 1 ! clk $end
$var wire 64 d" col_inputs_flat [63:0] $end
$var wire 1 # load_weights $end
$var wire 64 e" row_inputs_flat [63:0] $end
$var wire 1 % rst_n $end
$var wire 64 f" systolic_out_flat [63:0] $end
$var wire 64 g" dcu_out_flat [63:0] $end
$var parameter 32 h" DATA_WIDTH $end
$var parameter 32 i" NUM_ELEMENTS $end
$scope module relu_inst $end
$scope begin unpack_pack[0] $end
$upscope $end
$scope begin unpack_pack[1] $end
$upscope $end
$scope begin unpack_pack[2] $end
$upscope $end
$scope begin unpack_pack[3] $end
$upscope $end
$upscope $end
$scope module sys_array_inst $end
$scope begin edges[0] $end
$upscope $end
$scope begin edges[1] $end
$upscope $end
$scope begin edges[2] $end
$upscope $end
$scope begin edges[3] $end
$upscope $end
$scope begin map_outs[0] $end
$upscope $end
$scope begin map_outs[1] $end
$upscope $end
$scope begin map_outs[2] $end
$upscope $end
$scope begin map_outs[3] $end
$upscope $end
$scope begin rows[0] $end
$scope begin cols[0] $end
$scope module pe_inst $end
$upscope $end
$upscope $end
$scope begin cols[1] $end
$scope module pe_inst $end
$upscope $end
$upscope $end
$scope begin cols[2] $end
$scope module pe_inst $end
$upscope $end
$upscope $end
$scope begin cols[3] $end
$scope module pe_inst $end
$upscope $end
$upscope $end
$upscope $end
$scope begin rows[1] $end
$scope begin cols[0] $end
$scope module pe_inst $end
$upscope $end
$upscope $end
$scope begin cols[1] $end
$scope module pe_inst $end
$upscope $end
$upscope $end
$scope begin cols[2] $end
$scope module pe_inst $end
$upscope $end
$upscope $end
$scope begin cols[3] $end
$scope module pe_inst $end
$upscope $end
$upscope $end
$upscope $end
$scope begin rows[2] $end
$scope begin cols[0] $end
$scope module pe_inst $end
$upscope $end
$upscope $end
$scope begin cols[1] $end
$scope module pe_inst $end
$upscope $end
$upscope $end
$scope begin cols[2] $end
$scope module pe_inst $end
$upscope $end
$upscope $end
$scope begin cols[3] $end
$scope module pe_inst $end
$upscope $end
$upscope $end
$upscope $end
$scope begin rows[3] $end
$scope begin cols[0] $end
$scope module pe_inst $end
$upscope $end
$upscope $end
$scope begin cols[1] $end
$scope module pe_inst $end
$upscope $end
$upscope $end
$scope begin cols[2] $end
$scope module pe_inst $end
$upscope $end
$upscope $end
$scope begin cols[3] $end
$scope module pe_inst $end
$upscope $end
$upscope $end
$upscope $end
$scope begin unpack[0] $end
$upscope $end
$scope begin unpack[1] $end
$upscope $end
$scope begin unpack[2] $end
$upscope $end
$scope begin unpack[3] $end
$upscope $end
$upscope $end
$upscope $end
$enddefinitions $end
$comment Show the parameter values. $end
$dumpall
b100 i"
b10000 h"
b11 c"
b10 b"
b1 a"
b0 `"
b100 ^"
b10000 ]"
b11 Z"
b10 Y"
b1 X"
b0 W"
b10000 S"
b11 O"
b10000 K"
b10 G"
b10000 C"
b1 ?"
b10000 ;"
b0 7"
b11 6"
b10000 2"
b11 ."
b10000 *"
b10 &"
b10000 ""
b1 |
b10000 x
b0 t
b10 s
b10000 o
b11 k
b10000 g
b10 c
b10000 _
b1 [
b10000 W
b0 S
b1 R
b10000 N
b11 J
b10000 F
b10 B
b10000 >
b1 :
b10000 6
b0 2
b0 1
b11 0
b10 /
b1 .
b0 -
b11 ,
b10 +
b1 *
b0 )
b10000 (
b100 '
$end
#0
$dumpvars
b0 g"
b0 f"
b0 e"
b0 d"
b100 _"
b0 \"
b0 ["
b0 V"
b0 U"
b0 T"
b0 R"
b0 Q"
b0 P"
b0 N"
b0 M"
b0 L"
b0 J"
b0 I"
b0 H"
b0 F"
b0 E"
b0 D"
b0 B"
b0 A"
b0 @"
b0 >"
b0 ="
b0 <"
b0 :"
b0 9"
b0 8"
b0 5"
b0 4"
b0 3"
b0 1"
b0 0"
b0 /"
b0 -"
b0 ,"
b0 +"
b0 )"
b0 ("
b0 '"
b0 %"
b0 $"
b0 #"
b0 !"
b0 ~
b0 }
b0 {
b0 z
b0 y
b0 w
b0 v
b0 u
b0 r
b0 q
b0 p
b0 n
b0 m
b0 l
b0 j
b0 i
b0 h
b0 f
b0 e
b0 d
b0 b
b0 a
b0 `
b0 ^
b0 ]
b0 \
b0 Z
b0 Y
b0 X
b0 V
b0 U
b0 T
b0 Q
b0 P
b0 O
b0 M
b0 L
b0 K
b0 I
b0 H
b0 G
b0 E
b0 D
b0 C
b0 A
b0 @
b0 ?
b0 =
b0 <
b0 ;
b0 9
b0 8
b0 7
b0 5
b0 4
b0 3
b0 &
1%
b0 $
0#
b0 "
1!
$end
#5000
0!
#10000
b1111111111111011 4
b1111111111111011 5
b1111111111111111 <
b1111111111111111 =
b1111111111111100 D
b1111111111111100 E
b1111111111111101 L
b1111111111111101 M
b1111111111111101111111111111110011111111111111111111111111111011 "
b1111111111111101111111111111110011111111111111111111111111111011 d"
1#
b100 _"
1!
#15000
0!
#20000
b1111111111111110 <
b1111111111111110 =
b11 D
b11 E
b1111111111111111 L
b1111111111111111 M
b1111111111111111000000000000001111111111111111101111111111111011 "
b1111111111111111000000000000001111111111111111101111111111111011 d"
b1111111111111011 8
b1111111111111011 U
b1111111111111011 V
b1111111111111011 9
b1111111111111111 @
b1111111111111111 ]
b1111111111111111 ^
b1111111111111111 A
b1111111111111100 H
b1111111111111100 e
b1111111111111100 f
b1111111111111100 I
b1111111111111101 P
b1111111111111101 m
b1111111111111101 n
b1111111111111101 Q
b100 _"
1!
#25000
0!
#30000
b1 4
b1 5
b0 <
b0 =
b1111111111111011 D
b1111111111111011 E
b1111111111111111111111111111101100000000000000000000000000000001 "
b1111111111111111111111111111101100000000000000000000000000000001 d"
b1111111111111101 q
b1111111111111101 0"
b1111111111111101 1"
b1111111111111101 r
b1111111111111100 i
b1111111111111100 ("
b1111111111111100 )"
b1111111111111100 j
b1111111111111111 a
b1111111111111111 ~
b1111111111111111 !"
b1111111111111111 b
b1111111111111011 Y
b1111111111111011 v
b1111111111111011 w
b1111111111111011 Z
b1111111111111111 P
b1111111111111111 m
b1111111111111111 n
b1111111111111111 Q
b11 H
b11 e
b11 f
b11 I
b1111111111111110 @
b1111111111111110 ]
b1111111111111110 ^
b1111111111111110 A
b100 _"
1!
#35000
0!
#40000
b1111111111111101 4
b1111111111111101 5
b10 <
b10 =
b1 D
b1 E
b1111111111111111000000000000000100000000000000101111111111111101 "
b1111111111111111000000000000000100000000000000101111111111111101 d"
b1 8
b1 U
b1 V
b1 9
b0 @
b0 ]
b0 ^
b0 A
b1111111111111011 H
b1111111111111011 e
b1111111111111011 f
b1111111111111011 I
b1111111111111110 a
b1111111111111110 ~
b1111111111111110 !"
b1111111111111110 b
b11 i
b11 ("
b11 )"
b11 j
b1111111111111111 q
b1111111111111111 0"
b1111111111111111 1"
b1111111111111111 r
b1111111111111011 z
b1111111111111011 9"
b1111111111111011 :"
b1111111111111011 {
b1111111111111111 $"
b1111111111111111 A"
b1111111111111111 B"
b1111111111111111 %"
b1111111111111100 ,"
b1111111111111100 I"
b1111111111111100 J"
b1111111111111100 -"
b1111111111111101 4"
b1111111111111101 Q"
b1111111111111101 R"
b1111111111111101 5"
b100 _"
1!
#45000
0!
#50000
b0 4
b0 5
b0 <
b0 =
b0 D
b0 E
b0 L
b0 M
b0 "
b0 d"
0#
b1111111111111101 U"
b1111111111111101 V"
b1111111111111100 M"
b1111111111111100 N"
b1111111111111111 E"
b1111111111111111 F"
b1111111111111101111111111111110011111111111111111111111111111011 &
b1111111111111101111111111111110011111111111111111111111111111011 \"
b1111111111111101111111111111110011111111111111111111111111111011 f"
b1111111111111011 ="
b1111111111111011 >"
b1111111111111111 4"
b1111111111111111 Q"
b1111111111111111 R"
b1111111111111111 5"
b11 ,"
b11 I"
b11 J"
b11 -"
b1111111111111110 $"
b1111111111111110 A"
b1111111111111110 B"
b1111111111111110 %"
b1111111111111011 i
b1111111111111011 ("
b1111111111111011 )"
b1111111111111011 j
b0 a
b0 ~
b0 !"
b0 b
b1 Y
b1 v
b1 w
b1 Z
b1 H
b1 e
b1 f
b1 I
b10 @
b10 ]
b10 ^
b10 A
b1111111111111101 8
b1111111111111101 U
b1111111111111101 V
b1111111111111101 9
b100 _"
1!
#55000
0!
#60000
b0 8
b0 U
b0 V
b0 @
b0 ]
b0 ^
b0 H
b0 e
b0 f
b0 P
b0 m
b0 n
b1111111111111101 Y
b1111111111111101 v
b1111111111111101 w
b10 a
b10 ~
b10 !"
b1 i
b1 ("
b1 )"
b1 z
b1 9"
b1 :"
b0 $"
b0 A"
b0 B"
b1111111111111011 ,"
b1111111111111011 I"
b1111111111111011 J"
b1111111111111110 E"
b11 M"
b1111111111111111000000000000001111111111111111101111111111111011 &
b1111111111111111000000000000001111111111111111101111111111111011 \"
b1111111111111111000000000000001111111111111111101111111111111011 f"
b1111111111111111 U"
b100 _"
1!
#65000
0!
#70000
b1100000000000000000000000000000000 ["
b1100000000000000000000000000000000 g"
b1111111111111011 M"
b0 E"
b1111111111111111111111111111101100000000000000000000000000000001 &
b1111111111111111111111111111101100000000000000000000000000000001 \"
b1111111111111111111111111111101100000000000000000000000000000001 f"
b1 ="
b1 ,"
b1 I"
b1 J"
b10 $"
b10 A"
b10 B"
b1111111111111101 z
b1111111111111101 9"
b1111111111111101 :"
b0 q
b0 0"
b0 1"
b0 i
b0 ("
b0 )"
b0 a
b0 ~
b0 !"
b0 Y
b0 v
b0 w
b100 _"
1!
#75000
0!
#80000
b0 z
b0 9"
b0 :"
b0 $"
b0 A"
b0 B"
b0 ,"
b0 I"
b0 J"
b0 4"
b0 Q"
b0 R"
b1111111111111101 ="
b10 E"
b1111111111111111000000000000000100000000000000101111111111111101 &
b1111111111111111000000000000000100000000000000101111111111111101 \"
b1111111111111111000000000000000100000000000000101111111111111101 f"
b1 M"
b1 ["
b1 g"
b100 _"
1!
#85000
0!
#90000
b100000000000000100000000000000000 ["
b100000000000000100000000000000000 g"
b0 U"
b0 M"
b0 E"
b0 &
b0 \"
b0 f"
b0 ="
b100 _"
1!
#95000
0!
#100000
b0 ["
b0 g"
b100 _"
1!
#105000
0!
#110000
b10 u
b1000000000000000000000000000000000 $
b1000000000000000000000000000000000 e"
b100 _"
1!
#115000
0!
#120000
b0 u
b1 8"
b1000000000000000000000000000000000000000000000000 $
b1000000000000000000000000000000000000000000000000 e"
b1111111111110110 z
b1111111111110110 9"
b1111111111110110 :"
b10 y
b10 }
b100 _"
1!
#125000
0!
#130000
b0 8"
b0 $
b0 e"
b1111111111110001 &
b1111111111110001 \"
b1111111111110001 f"
b1111111111110001 ="
b1 <"
b1 @"
b1111111111111100 $"
b1111111111111100 A"
b1111111111111100 B"
b10 #"
b10 '"
b0 z
b0 9"
b0 :"
b0 y
b0 }
b100 _"
1!
#135000
0!
#140000
b0 $"
b0 A"
b0 B"
b0 #"
b0 '"
b110 ,"
b110 I"
b110 J"
b10 +"
b10 /"
b0 ="
b0 <"
b0 @"
b11111111111110110000000000000000 &
b11111111111110110000000000000000 \"
b11111111111110110000000000000000 f"
b1111111111111011 E"
b1 D"
b1 H"
b100 _"
1!
#145000
0!
#150000
b10 M"
b1 L"
b1 P"
b1000000000000000000000000000000000 &
b1000000000000000000000000000000000 \"
b1000000000000000000000000000000000 f"
b0 E"
b0 D"
b0 H"
b1111111111111110 4"
b1111111111111110 Q"
b1111111111111110 R"
b10 3"
b0 ,"
b0 I"
b0 J"
b0 +"
b0 /"
b100 _"
1!
#155000
0!
#160000
b0 4"
b0 Q"
b0 R"
b0 3"
b0 M"
b0 L"
b0 P"
b1111111111111011000000000000000000000000000000000000000000000000 &
b1111111111111011000000000000000000000000000000000000000000000000 \"
b1111111111111011000000000000000000000000000000000000000000000000 f"
b1111111111111011 U"
b1 T"
b1000000000000000000000000000000000 ["
b1000000000000000000000000000000000 g"
b100 _"
1!
#165000
0!
#170000
b0 ["
b0 g"
b0 &
b0 \"
b0 f"
b0 U"
b0 T"
b100 _"
1!
#175000
0!
#180000
b100 _"
1!
#185000
0!
#190000
b100 _"
1!
#195000
0!
#200000
b100 _"
1!
#205000
0!
#210000
b100 _"
1!
#215000
0!
#220000
b100 _"
1!
#225000
0!
#230000
b100 _"
1!
#235000
0!
#240000
b100 _"
1!
#245000
0!
#250000
b100 _"
1!
