utm_waveform.vcd
$date
	Fri Feb 27 10:01:30 2026
$end
$version
	Icarus Verilog
$end
$timescale
	1ps
$end
$scope module utm_pingpong $end
$var wire 1 ! clk $end
$var wire 4 " rd_addr [3:0] $end
$var wire 1 # rd_en $end
$var wire 1 $ rst_n $end
$var wire 1 % swap $end
$var wire 4 & wr_addr [3:0] $end
$var wire 64 ' wr_data [63:0] $end
$var wire 1 ( wr_en $end
$var parameter 32 ) ADDR_WIDTH $end
$var parameter 32 * DATA_WIDTH $end
$var reg 64 + rd_data [63:0] $end
$var reg 1 , write_bank_sel $end
$upscope $end
$enddefinitions $end
$comment Show the parameter values. $end
$dumpall
b1000000 *
b100 )
$end
#0
$dumpvars
0,
b0 +
0(
bz '
bz &
0%
1$
0#
bz "
1!
$end
#5000
0!
#10000
b10001110000011110111010000010101101010110010101001010110110111 '
b0 &
1(
1!
#15000
0!
#20000
b100100001001000001111111100000100100001111001111100011111010011 '
b1 &
1!
#25000
0!
#30000
b1111010010101110100010000000011010111000111100001010110001011100 '
b10 &
1!
#35000
0!
#40000
b1000000101001001101001010010001101011110010110111010010111110111 '
b11 &
1!
#45000
0!
#50000
1%
0(
1!
#55000
0!
#60000
b10001110000011110111010000010101101010110010101001010110110111 +
b0 "
b1111110010110101100000001110111000001001001011100111000110011 '
b0 &
1#
1(
0%
1,
1!
#65000
0!
#70000
b1 "
b100101001100101100110010100010101010011011110001110101111 '
b1 &
b100100001001000001111111100000100100001111001111100011111010011 +
1!
#75000
0!
#80000
b10 "
b1100110011010000111110000000001111111111001110011001111011110111 '
b10 &
b1111010010101110100010000000011010111000111100001010110001011100 +
1!
#85000
0!
#90000
b11 "
b1010000101100011011100100001011011111000110111010110110000100001 '
b11 &
b1000000101001001101001010010001101011110010110111010010111110111 +
1!
#95000
0!
#100000
b1000000101001001101001010010001101011110010110111010010111110111 +
1!
